<svg
    xmlns="http://www.w3.org/2000/svg"
    viewBox="0 0 128 128"
    id="vector">
    <path
        id="path"
        d="M 64 0 C 47.033 0 30.743 6.747 18.745 18.745 C 6.747 30.743 0 47.033 0 64 C 0 80.967 6.747 97.257 18.745 109.255 C 30.743 121.253 47.033 128 64 128 C 80.967 128 97.257 121.253 109.255 109.255 C 121.253 97.257 128 80.967 128 64 C 128 47.033 121.253 30.743 109.255 18.745 C 97.257 6.747 80.967 0 64 0 Z"
        fill="#e5008c"
        stroke-width="1"/>
    <g id="group">
        <path
            id="path_1"
            d="M 64.9 89.1 L 62 89.1 L 61.6 88.6 L 59.2 94.4 L 67.6 94.4 L 65.2 88.6 L 64.9 89.1 Z M 98.4 76.5 C 96.1 73.7 92.9 71.9 89.3 71.4 L 82.7 70.3 L 73 86.1 L 69.8 83.1 L 68.6 84.5 L 72.6 94.2 L 102 94.2 L 102 86.1 C 102 82.8 100.7 79.3 98.4 76.5 Z M 54.5 68.3 L 50 71.2 L 54.9 79.3 L 60.2 74.4 L 54.5 68.3 Z M 57.4 83.1 L 54.2 86.1 L 44.5 70.3 L 37.9 71.4 C 34.4 72 31.2 73.8 28.8 76.5 C 26.5 79.3 25.2 82.8 25.2 86.2 L 25.2 94.4 L 54.7 94.4 L 58.7 84.7 L 57.4 83.1 Z M 60.6 80.1 L 61.1 80.7 L 63.5 83.8 L 65.9 80.7 L 66.4 80.1 L 63.5 77.5 L 60.6 80.1 Z M 66.6 74.3 L 71.9 79.2 L 76.8 71.1 L 72.3 68.2 L 66.6 74.3 Z M 44.5 34.4 L 82.5 34.4 L 83.1 33.4 C 83.8 32.3 84.1 31 83.7 29.7 C 83.3 28.5 82.5 27.4 81.4 26.8 L 65.5 18.7 C 64.2 18 62.6 18 61.3 18.7 L 45.5 26.8 C 44.3 27.4 43.5 28.5 43.2 29.7 C 42.8 30.9 43.1 32.3 43.8 33.4 L 44.5 34.4 Z M 63.5 26.7 C 64.7 26.7 65.8 27.7 65.8 29 C 65.8 30.2 64.8 31.3 63.5 31.3 C 62.3 31.3 61.2 30.3 61.2 29 C 61.2 27.8 62.2 26.7 63.5 26.7 Z M 81.3 47.4 C 78.9 50.2 75.3 52 71.3 52 L 55.7 52 C 51.7 52 48.1 50.2 45.7 47.4 L 45.7 50.2 C 45.7 55.9 48.3 61 52.6 64.3 C 53.2 64.8 53.9 65.3 54.5 65.6 C 56.2 66.6 58 67.3 59.9 67.6 L 63.4 71.2 L 66.9 67.6 C 68.8 67.2 70.6 66.5 72.3 65.6 C 73 65.2 73.6 64.8 74.2 64.3 C 78.4 61.1 81.1 56 81.1 50.2 L 81.1 47.4 L 81.3 47.4 Z"
            fill="#ffffff"
            stroke-width="1"/>
        <path
            id="path_2"
            d="M 55.7 47.5 L 71.2 47.5 C 75.3 47.5 78.7 44.7 79.6 41 C 79.8 40.3 79.8 39.6 79.8 38.7 L 47 38.7 C 47 39.4 47.1 40.3 47.2 41 C 48.3 44.7 51.7 47.5 55.7 47.5 Z"
            fill="#ffffff"
            stroke-width="1"/>
    </g>
</svg>
