<svg
    xmlns="http://www.w3.org/2000/svg"
    viewBox="0 0 128 128"
    id="vector">
    <path
        id="path"
        d="M 64 0 C 47.033 0 30.743 6.747 18.745 18.745 C 6.747 30.743 0 47.033 0 64 C 0 80.967 6.747 97.257 18.745 109.255 C 30.743 121.253 47.033 128 64 128 C 80.967 128 97.257 121.253 109.255 109.255 C 121.253 97.257 128 80.967 128 64 C 128 47.033 121.253 30.743 109.255 18.745 C 97.257 6.747 80.967 0 64 0 Z"
        fill="#e5008c"
        stroke-width="1"/>
    <g id="group">
        <path
            id="path_1"
            d="M 89.4 73.3 C 90.3 75.6 90.7 77.8 91.3 79.8 C 91.4 80.4 91.2 80.8 90.8 81.2 C 85.2 88.2 77.8 92.6 68.9 93.8 C 56.1 95.6 45.6 91.2 37.4 81.4 C 36.9 80.8 36.8 80.3 37 79.4 C 37.5 77.6 38 75.9 38.4 74 C 38.4 73.9 38.5 73.6 38.7 73.2 C 39.8 75.1 41 77 42.3 78.5 C 45.8 82.6 50.2 85.5 55.3 87.1 C 58.3 88.1 60.6 86.3 60.6 83.2 L 60.6 72.3 C 60.6 70.7 60 69.4 58.5 68.5 C 57.1 67.6 55.9 66.5 55.1 65 C 54.2 63.5 52.8 62.9 51.2 62.9 L 44.1 62.9 C 42.5 62.9 42.5 62.9 42.5 61.4 C 42.5 60 42.6 58.6 42.6 57.3 C 42.6 56.5 42.9 56.3 43.7 56.3 L 51.2 56.3 C 53.1 56.3 54.6 55.8 55.7 54.2 C 59.7 48.6 67.8 48.6 72 53.9 C 73.3 55.5 74.6 56.4 76.8 56.3 C 79.3 56.2 81.9 56.3 84.4 56.3 C 85.3 56.3 85.7 56.4 85.7 57.4 C 85.7 59 85.7 60.7 85.8 62.2 C 85.8 62.8 85.7 63 85 63 L 77 63 C 75.1 63 73.6 63.6 72.6 65.4 C 71.8 66.8 70.7 67.9 69.3 68.7 C 67.8 69.6 67.2 70.8 67.2 72.6 L 67.2 83.2 C 67.2 86.7 69.6 88.3 72.8 87.2 C 79.8 84.8 85.1 80.4 88.8 74.2 C 88.9 74.1 89.2 73.8 89.4 73.3 Z M 68.7 60.3 C 68.7 57.5 66.7 55.4 63.9 55.4 C 61.3 55.4 59.3 57.5 59.1 60.2 C 59.1 62.8 61.2 65.1 63.9 65.1 C 66.7 65.1 68.7 62.9 68.7 60.3 Z"
            fill="#ffffff"
            stroke-width="1"/>
        <path
            id="path_2"
            d="M 94.8 45.1 C 97.7 48.4 100.6 51.6 103.3 54.9 C 104.2 56 104.1 57.4 103.9 58.7 C 103.4 61.6 102.9 64.6 102.5 67.5 C 102.2 68.8 102 70.1 101.5 71.3 C 100.9 72.7 101 74.1 101.2 75.6 C 101.6 78 102 80.4 102.3 82.7 C 102.4 83.3 102.3 83.6 101.5 83.8 C 99.1 84.3 96.6 84.9 94.2 85.6 C 93.4 85.9 93.2 85.6 93.1 84.8 C 92.2 81.3 91.3 77.9 90.6 74.4 C 90.3 73.5 90.1 72.8 89.5 72.3 C 87.7 70.8 87.1 68.9 86.9 66.8 C 86.1 60.9 86.1 55 85.9 49.2 C 85.8 47.3 86.7 46.3 88 46.1 C 89.8 45.7 91.3 46.9 91.4 48.6 C 91.5 51 91.5 53.2 91.5 55.6 C 91.5 56.6 91.2 57.6 92.3 58.2 C 93.4 58.8 94.4 58.2 95.3 57.6 C 96.7 56.6 96.9 55.2 96.6 53.7 C 96.1 51.6 95.5 49.4 95 47.3 C 94.9 46.7 94.7 46 94.6 45.3 L 94.8 45.1 Z M 33.3 45.1 C 33.2 47.1 32.5 49.1 32 51.1 C 31.6 52.2 31.4 53.4 31.4 54.5 C 31.4 56.4 32.3 57.5 33.9 58.1 C 35.5 58.7 36.4 58.1 36.4 56.3 L 36.4 49.5 L 36.4 48.4 C 36.5 46.8 37.7 45.8 39.3 45.8 C 40.9 45.8 41.8 46.7 42.1 48.4 C 42.4 50.9 42 53.5 41.8 56 C 41.7 59.5 41.7 63 41.2 66.4 C 40.9 68.5 40.3 70.5 38.6 72 C 38 72.6 37.6 73.4 37.5 74.3 C 36.6 77.7 35.9 80.9 35 84.3 C 34.7 85.3 34.5 85.4 33.5 85.2 C 31.2 84.6 28.9 83.9 26.5 83.4 C 25.9 83.3 25.7 83 25.9 82.4 C 26.4 79.8 26.8 77 27.2 74.4 C 27.3 73.5 27.3 72.5 26.9 71.6 C 25.4 68.5 25.4 65 24.8 61.5 C 24.4 59.7 23.8 57.9 24.3 56 C 24.4 55.4 24.6 54.9 24.9 54.5 C 27.6 51.4 30.5 48.3 33.3 45.1 Z"
            fill="#ffffff"
            stroke-width="1"/>
        <path
            id="path_3"
            d="M 92.4 52.4 L 92.4 48.8 C 92.3 46.5 91 45.2 88.8 45 C 88 45 87.8 44.5 87.4 44.1 C 81.1 35.6 72.8 31.2 62.1 31.7 C 53 32.2 45.7 36.5 40.3 44 C 39.8 44.6 39.4 45 38.7 45.1 C 36.8 45.4 35.6 46.9 35.6 48.9 L 35.6 55.9 C 35.6 56.4 35.7 57.2 35.2 57.4 C 34.7 57.7 34.1 57.3 33.6 57 C 32.6 56.5 32.2 55.5 32.2 54.4 C 32.2 53.3 32.6 52.3 32.8 51.3 C 33.4 49 34.2 46.8 34.4 44.5 C 34.8 41.6 36.5 39.7 38.3 37.7 C 53 21.3 79 22.8 91.7 40.6 C 92.6 41.9 93.2 43.1 93.5 44.7 C 93.9 47.2 94.8 49.7 95.4 52.1 C 95.7 53 95.8 53.7 95.8 54.6 C 95.8 55.4 95.7 56 95 56.5 C 94.3 57 93.6 57.6 92.9 57.4 C 92.2 57.2 92.4 56.1 92.4 55.5 C 92.4 54.4 92.5 53.4 92.4 52.4 Z"
            fill="#ffffff"
            stroke-width="1"/>
    </g>
</svg>
