<svg
    xmlns="http://www.w3.org/2000/svg"
    viewBox="0 0 128 128"
    id="vector">
    <path
        id="path"
        d="M 64 0 C 47.033 0 30.743 6.747 18.745 18.745 C 6.747 30.743 0 47.033 0 64 C 0 80.967 6.747 97.257 18.745 109.255 C 30.743 121.253 47.033 128 64 128 C 80.967 128 97.257 121.253 109.255 109.255 C 121.253 97.257 128 80.967 128 64 C 128 47.033 121.253 30.743 109.255 18.745 C 97.257 6.747 80.967 0 64 0 Z"
        fill="#e5008c"
        stroke-width="1"/>
    <g id="group">
        <path
            id="path_1"
            d="M 99 80.3 L 90 80.3 L 81.6 74.2 C 80.8 73.6 79.7 73.8 79.1 74.6 C 78.5 75.4 78.7 76.5 79.5 77.1 L 83.8 80.3 L 80.9 80.3 C 80.3 80.3 79.8 80.8 79.9 81.4 L 82.6 96.9 C 82.7 97.4 83.1 97.8 83.6 97.8 L 96.4 97.8 C 96.9 97.8 97.3 97.4 97.4 96.9 L 99.9 81.4 C 100.2 80.8 99.7 80.3 99 80.3 Z M 89.9 85.7 C 89.1 85.8 88.4 85.3 88.3 84.6 C 88.3 84.3 88.3 84 88.4 83.7 C 88.7 83.3 89 83.1 89.4 82.9 C 89.9 82.8 90.4 83 90.7 83.4 C 90.8 83.5 91 83.8 91 84 C 91.3 84.8 90.7 85.6 89.9 85.7 Z M 52.9 38 C 54.9 38 57.2 36.9 57.2 36.9 C 56.2 36.3 55.6 35 55.3 33.7 C 56.4 35.6 58.3 36.7 60.6 36.7 C 62.8 36.7 64.8 35.4 65.9 33.7 C 65.6 35 65.1 36.2 64 36.9 C 64 36.9 66.3 38 68.3 38 C 69.7 38 70.8 37.5 71.3 36 C 71.4 35.7 71.3 35.5 71 35.4 C 70.2 35 68.6 33.9 68.6 31.5 C 68.6 28.5 69.4 19.1 60.5 19.1 C 51.6 19.1 52.3 28.5 52.3 31.5 C 52.3 33.9 50.7 35.1 49.9 35.4 C 49.6 35.5 49.5 35.8 49.6 36 C 50.2 37.5 51.5 38 52.9 38 Z M 81 65.7 C 82.3 64.7 82.6 62.9 81.6 61.5 L 67.5 42.3 C 64.5 38.2 58.5 38.5 54.7 41.3 L 42.9 50.1 L 35.8 46.2 L 35.8 52.9 L 41.8 56.2 C 42.3 56.5 42.7 56.6 43.2 56.6 C 43.8 56.6 44.5 56.3 45 56 L 51.7 51.1 L 51.7 58.5 L 44.6 78.3 C 44.3 78.9 44.9 79.7 45.6 79.7 L 51.7 79.7 L 51.7 95.1 C 51.7 97.3 53.5 99 55.6 99 C 57.8 99 59.5 97.2 59.5 95.1 L 59.5 79.5 L 61.4 79.5 L 61.4 94.9 C 61.4 97.1 63.2 98.8 65.3 98.8 C 67.5 98.8 69.2 97 69.2 94.9 L 69.2 79.5 L 75.3 79.5 C 76.1 79.5 76.4 78.7 76.3 78.1 L 69.4 58.3 L 69.4 54.9 L 76.9 64.9 C 77.5 65.7 78.4 66 79.3 66 C 79.9 66.2 80.5 66.1 81 65.7 Z M 34.2 78.4 L 34.2 23.9 C 34.2 23 33.4 22.1 32.4 22.1 C 31.4 22.1 30.8 23 30.8 23.9 L 30.8 78.1 C 31.2 78 31.7 78 32.1 78 C 32.8 78.1 33.5 78.2 34.2 78.4 Z M 45 98 C 42.2 96.6 39.9 93.8 39.9 90.1 C 39.9 86.4 37.7 84.8 36.9 84.3 C 35.8 84 34.6 83.7 33.2 83.7 L 31.6 83.7 C 29.7 83.8 28 84.2 26.7 84.8 C 24.7 86.2 24.8 89 24.8 89 C 24.8 98.1 31.8 100.2 37.9 100.2 C 40.6 100.2 43.1 99.8 44.9 99.4 C 45.5 99.3 45.5 98.4 45 98 Z M 30.4 81.9 C 30.8 81.9 31.2 81.9 31.4 81.8 L 33.2 81.8 C 33.6 81.8 34 81.9 34.2 81.9 C 34.5 81.9 34.8 82 35.1 82 C 35.4 82 35.6 82.1 35.7 82.1 C 35.6 81.8 35.4 81.6 35.3 81.3 C 35 81 34.9 80.8 34.7 80.5 C 34.6 80.4 34.3 80.2 34.2 80.1 C 34.1 80.1 34.1 80 33.9 80 C 33.4 79.9 32.8 79.7 32 79.7 C 31.5 79.7 31.1 79.7 30.7 79.8 C 30.4 79.9 30.2 79.9 29.9 80.1 C 29.8 80.1 29.8 80.2 29.6 80.2 C 29.5 80.3 29.2 80.5 29.1 80.6 C 28.7 81 28.3 81.5 28.1 82 C 28.6 81.9 29 81.7 29.5 81.7 C 29.8 81.9 30.2 81.9 30.4 81.9 Z"
            fill="#ffffff"
            stroke-width="1"/>
    </g>
</svg>
