<svg
    xmlns="http://www.w3.org/2000/svg"
    viewBox="0 0 24 24"
    id="vector">
    <path
        id="path"
        d="M 2.75 11.021 L 2.75 16.5 C 2.75 17.186 3.314 17.75 4 17.75 L 20 17.75 C 20.686 17.75 21.25 17.186 21.25 16.5 L 21.25 11.021 L 2.75 11.021 Z M 2.75 9.021 L 21.25 9.021 L 21.25 7.5 C 21.25 6.814 20.686 6.25 20 6.25 L 4 6.25 C 3.314 6.25 2.75 6.814 2.75 7.5 L 2.75 9.021 Z M 1.25 16.5 L 1.25 7.5 C 1.25 5.986 2.486 4.75 4 4.75 L 20 4.75 C 21.514 4.75 22.75 5.986 22.75 7.5 L 22.75 16.5 C 22.75 18.014 21.514 19.25 20 19.25 L 4 19.25 C 2.486 19.25 1.25 18.014 1.25 16.5 Z"
        fill="#839094"/>
</svg>
